{
    "global": {
        "config_id": "global",
        "app_name": "Exchanger",
        "app_desc": "This is a short API to show relevants exchanges rates on Venezuela"
    },
    "development": {
        "config_id": "development",
        "node_port": 81,
        "database": "exchange",
        "url_convert": "https://free.currencyconverterapi.com/api/v6/convert",
        "url_currencies": "https://free.currencyconverterapi.com/api/v6/currencies"
    },
    "testing": {
        "config_id": "testing"
    },
    "staging": {
        "config_id": "staging"
    },
    "production": {
        "config_id": "production"
    }
}